<?xml version="1.0" encoding="UTF-8" standalone="no"?>
<!-- Created with Inkscape (http://www.inkscape.org/) -->

<svg
   xmlns:dc="http://purl.org/dc/elements/1.1/"
   xmlns:cc="http://creativecommons.org/ns#"
   xmlns:rdf="http://www.w3.org/1999/02/22-rdf-syntax-ns#"
   xmlns:svg="http://www.w3.org/2000/svg"
   xmlns="http://www.w3.org/2000/svg"
   xmlns:xlink="http://www.w3.org/1999/xlink"
   xmlns:sodipodi="http://sodipodi.sourceforge.net/DTD/sodipodi-0.dtd"
   xmlns:inkscape="http://www.inkscape.org/namespaces/inkscape"
   id="svg175590"
   version="1.1"
   inkscape:version="0.92.2 (5c3e80d, 2017-08-06)"
   width="1157.9927"
   height="1213.3422"
   xml:space="preserve"
   sodipodi:docname="amnioserosa.svg"><metadata
     id="metadata175596"><rdf:RDF><cc:Work
         rdf:about=""><dc:format>image/svg+xml</dc:format><dc:type
           rdf:resource="http://purl.org/dc/dcmitype/StillImage" /><dc:title /></cc:Work></rdf:RDF></metadata><defs
     id="defs175594"><linearGradient
       inkscape:collect="always"
       id="linearGradient3996"><stop
         style="stop-color:#000000;stop-opacity:1;"
         offset="0"
         id="stop3992" /><stop
         style="stop-color:#000000;stop-opacity:0;"
         offset="1"
         id="stop3994" /></linearGradient><clipPath
       clipPathUnits="userSpaceOnUse"
       id="clipPath175604"><path
         d="M 0,1.2207e-4 H 720 V 540.00012 H 0 Z"
         id="path175606"
         inkscape:connector-curvature="0"
         style="clip-rule:evenodd" /></clipPath><clipPath
       clipPathUnits="userSpaceOnUse"
       id="clipPath175614"><path
         d="M 0,2.4414e-4 H 720 V 540.00024 H 0 Z"
         id="path175616"
         inkscape:connector-curvature="0"
         style="clip-rule:evenodd" /></clipPath><linearGradient
       inkscape:collect="always"
       xlink:href="#linearGradient3996"
       id="linearGradient4016"
       gradientUnits="userSpaceOnUse"
       x1="1192.1191"
       y1="-339.54517"
       x2="1107.6803"
       y2="-458.75302" /><linearGradient
       inkscape:collect="always"
       xlink:href="#linearGradient3996"
       id="linearGradient4018"
       gradientUnits="userSpaceOnUse"
       x1="1192.1191"
       y1="-339.54517"
       x2="1107.6803"
       y2="-458.75302" /><linearGradient
       inkscape:collect="always"
       xlink:href="#linearGradient3996"
       id="linearGradient4020"
       gradientUnits="userSpaceOnUse"
       x1="1192.1191"
       y1="-339.54517"
       x2="1107.6803"
       y2="-458.75302" /></defs><sodipodi:namedview
     pagecolor="#ffffff"
     bordercolor="#666666"
     borderopacity="1"
     objecttolerance="10"
     gridtolerance="10"
     guidetolerance="10"
     inkscape:pageopacity="1"
     inkscape:pageshadow="2"
     inkscape:window-width="1440"
     inkscape:window-height="808"
     id="namedview175592"
     showgrid="false"
     inkscape:zoom="0.52430186"
     inkscape:cx="151.1236"
     inkscape:cy="444.5758"
     inkscape:window-x="61"
     inkscape:window-y="23"
     inkscape:window-maximized="0"
     inkscape:current-layer="g175598"
     fit-margin-top="0"
     fit-margin-left="0"
     fit-margin-right="0"
     fit-margin-bottom="0"
     showguides="false" /><g
     id="g175598"
     inkscape:groupmode="layer"
     inkscape:label="holomorphic_nonholomorphic"
     transform="matrix(1.25,0,0,-1.25,-104.90151,430.05072)"><flowRoot
       xml:space="preserve"
       id="flowRoot176484"
       style="font-style:normal;font-variant:normal;font-weight:normal;font-stretch:normal;line-height:0.01%;font-family:Arial;-inkscape-font-specification:Arial;letter-spacing:0px;word-spacing:0px;fill:#000000;fill-opacity:1;stroke:none"
       transform="matrix(0.8,0,0,-0.8,10.860274,430.69168)"><flowRegion
         id="flowRegion176486"><rect
           id="rect176488"
           width="76.296562"
           height="62.101849"
           x="91.378433"
           y="112.53467"
           style="font-style:normal;font-variant:normal;font-weight:normal;font-stretch:normal;font-size:50px;font-family:Arial;-inkscape-font-specification:Arial" /></flowRegion><flowPara
         id="flowPara176490"
         style="font-size:36px;line-height:1.25">A</flowPara></flowRoot><flowRoot
       xml:space="preserve"
       id="flowRoot176484-9"
       style="font-style:normal;font-variant:normal;font-weight:normal;font-stretch:normal;line-height:0.01%;font-family:Arial;-inkscape-font-specification:Arial;letter-spacing:0px;word-spacing:0px;fill:#000000;fill-opacity:1;stroke:none"
       transform="matrix(0.8,0,0,-0.8,331.90574,430.69168)"><flowRegion
         id="flowRegion176486-9"><rect
           id="rect176488-6"
           width="76.296562"
           height="62.101849"
           x="91.378433"
           y="112.53467"
           style="font-style:normal;font-variant:normal;font-weight:normal;font-stretch:normal;font-size:50px;font-family:Arial;-inkscape-font-specification:Arial" /></flowRegion><flowPara
         id="flowPara176490-7"
         style="font-size:36px;line-height:1.25">B</flowPara></flowRoot><image
       sodipodi:absref="/Users/marees/Papers/LOCO_EFA/figures/../output/Images/Final/Fig6/rawimage_bar.png"
       xlink:href="../output/Images/Final/Fig6/rawimage_bar.png"
       transform="scale(1,-1)"
       width="280"
       height="278.39999"
       preserveAspectRatio="none"
       id="image163-7"
       x="83.921211"
       y="-309.94659" /><image
       sodipodi:absref="/Users/marees/Papers/LOCO_EFA/figures/../output/Images/Final/Fig6/L2.png"
       xlink:href="../output/Images/Final/Fig6/L2.png"
       transform="scale(1,-1)"
       width="280"
       height="278.39999"
       preserveAspectRatio="none"
       id="image163-7-4-0"
       x="83.921211"
       y="19.143343" /><image
       sodipodi:absref="/Users/marees/Papers/LOCO_EFA/figures/../output/Images/Final/Fig6/maxdrop.png"
       xlink:href="../output/Images/Final/Fig6/maxdrop.png"
       transform="scale(1,-1)"
       y="348.23312"
       x="83.921211"
       id="image163-7-4-0-1"
       preserveAspectRatio="none"
       height="278.39999"
       width="280"
       style="fill:url(#linearGradient4016);fill-opacity:1" /><image
       sodipodi:absref="/Users/marees/Papers/LOCO_EFA/figures/../output/Images/Final/Fig6/segmentation.png"
       xlink:href="../output/Images/Final/Fig6/segmentation.png"
       transform="scale(1,-1)"
       y="-309.94659"
       x="407.11823"
       id="image163-7-4"
       preserveAspectRatio="none"
       height="278.39999"
       width="280" /><image
       sodipodi:absref="/Users/marees/Papers/LOCO_EFA/figures/../output/Images/Final/Fig6/L5.png"
       xlink:href="../output/Images/Final/Fig6/L5.png"
       transform="scale(1,-1)"
       y="19.143343"
       x="407.11826"
       id="image163-7-4-0-7"
       preserveAspectRatio="none"
       height="278.39999"
       width="280" /><image
       sodipodi:absref="/Users/marees/Papers/LOCO_EFA/figures/../output/Images/Final/Fig6/cumulative.png"
       xlink:href="../output/Images/Final/Fig6/cumulative.png"
       transform="scale(1,-1)"
       y="348.23312"
       x="407.11826"
       id="image163-7-4-0-1-2"
       preserveAspectRatio="none"
       height="278.39999"
       width="280"
       style="fill:url(#linearGradient4018);fill-opacity:1" /><image
       sodipodi:absref="/Users/marees/Papers/LOCO_EFA/figures/../output/Images/Final/Fig6/area.png"
       xlink:href="../output/Images/Final/Fig6/area.png"
       transform="scale(1,-1)"
       width="280"
       height="278.39999"
       preserveAspectRatio="none"
       id="image163-7-4-1"
       x="730.31531"
       y="-309.94659" /><image
       sodipodi:absref="/Users/marees/Papers/LOCO_EFA/figures/../output/Images/Final/Fig6/L8.png"
       xlink:href="../output/Images/Final/Fig6/L8.png"
       transform="scale(1,-1)"
       y="19.143343"
       x="730.31531"
       id="image163-7-4-0-8"
       preserveAspectRatio="none"
       height="278.39999"
       width="280" /><image
       sodipodi:absref="/Users/marees/Papers/LOCO_EFA/figures/../output/Images/Final/Fig6/entropy.png"
       xlink:href="../output/Images/Final/Fig6/entropy.png"
       transform="scale(1,-1)"
       width="280"
       height="278.39999"
       preserveAspectRatio="none"
       id="image163-7-4-0-1-2-3"
       x="730.31531"
       y="348.23312"
       style="fill:url(#linearGradient4020);fill-opacity:1" /><flowRoot
       xml:space="preserve"
       id="flowRoot176484-9-7"
       style="font-style:normal;font-variant:normal;font-weight:normal;font-stretch:normal;line-height:0.01%;font-family:Arial;-inkscape-font-specification:Arial;letter-spacing:0px;word-spacing:0px;fill:#000000;fill-opacity:1;stroke:none"
       transform="matrix(0.8,0,0,-0.8,666.80074,430.69168)"><flowRegion
         id="flowRegion176486-9-3"><rect
           id="rect176488-6-0"
           width="76.296562"
           height="62.101849"
           x="91.378433"
           y="112.53467"
           style="font-style:normal;font-variant:normal;font-weight:normal;font-stretch:normal;font-size:50px;font-family:Arial;-inkscape-font-specification:Arial" /></flowRegion><flowPara
         id="flowPara176490-7-6"
         style="font-size:36px;line-height:1.25">C</flowPara></flowRoot><flowRoot
       xml:space="preserve"
       id="flowRoot176484-9-6"
       style="font-style:normal;font-variant:normal;font-weight:normal;font-stretch:normal;line-height:0.01%;font-family:Arial;-inkscape-font-specification:Arial;letter-spacing:0px;word-spacing:0px;fill:#000000;fill-opacity:1;stroke:none"
       transform="matrix(0.8,0,0,-0.8,10.860274,88.86986)"><flowRegion
         id="flowRegion176486-9-5"><rect
           id="rect176488-6-7"
           width="76.296562"
           height="62.101849"
           x="91.378433"
           y="112.53467"
           style="font-style:normal;font-variant:normal;font-weight:normal;font-stretch:normal;font-size:50px;font-family:Arial;-inkscape-font-specification:Arial" /></flowRegion><flowPara
         id="flowPara176490-7-64"
         style="font-size:36px;line-height:1.25">D</flowPara></flowRoot><flowRoot
       xml:space="preserve"
       id="flowRoot176484-9-69"
       style="font-style:normal;font-variant:normal;font-weight:normal;font-stretch:normal;line-height:0.01%;font-family:Arial;-inkscape-font-specification:Arial;letter-spacing:0px;word-spacing:0px;fill:#000000;fill-opacity:1;stroke:none"
       transform="matrix(0.8,0,0,-0.8,331.90574,88.86986)"><flowRegion
         id="flowRegion176486-9-2"><rect
           id="rect176488-6-1"
           width="76.296562"
           height="62.101849"
           x="91.378433"
           y="112.53467"
           style="font-style:normal;font-variant:normal;font-weight:normal;font-stretch:normal;font-size:50px;font-family:Arial;-inkscape-font-specification:Arial" /></flowRegion><flowPara
         id="flowPara176490-7-3"
         style="font-size:36px;line-height:1.25">E</flowPara></flowRoot><flowRoot
       xml:space="preserve"
       id="flowRoot176484-9-8"
       style="font-style:normal;font-variant:normal;font-weight:normal;font-stretch:normal;line-height:0.01%;font-family:Arial;-inkscape-font-specification:Arial;letter-spacing:0px;word-spacing:0px;fill:#000000;fill-opacity:1;stroke:none"
       transform="matrix(0.8,0,0,-0.8,665.87262,88.86986)"><flowRegion
         id="flowRegion176486-9-1"><rect
           id="rect176488-6-8"
           width="76.296562"
           height="62.101849"
           x="91.378433"
           y="112.53467"
           style="font-style:normal;font-variant:normal;font-weight:normal;font-stretch:normal;font-size:50px;font-family:Arial;-inkscape-font-specification:Arial" /></flowRegion><flowPara
         id="flowPara176490-7-5"
         style="font-size:36px;line-height:1.25">F</flowPara></flowRoot><flowRoot
       xml:space="preserve"
       id="flowRoot176484-9-3"
       style="font-style:normal;font-variant:normal;font-weight:normal;font-stretch:normal;line-height:0.01%;font-family:Arial;-inkscape-font-specification:Arial;letter-spacing:0px;word-spacing:0px;fill:#000000;fill-opacity:1;stroke:none"
       transform="matrix(0.8,0,0,-0.8,10.860274,-230.38867)"><flowRegion
         id="flowRegion176486-9-36"><rect
           id="rect176488-6-3"
           width="76.296562"
           height="62.101849"
           x="91.378433"
           y="112.53467"
           style="font-style:normal;font-variant:normal;font-weight:normal;font-stretch:normal;font-size:50px;font-family:Arial;-inkscape-font-specification:Arial" /></flowRegion><flowPara
         id="flowPara176490-7-1"
         style="font-size:36px;line-height:1.25">G</flowPara></flowRoot><flowRoot
       xml:space="preserve"
       id="flowRoot176484-9-2"
       style="font-style:normal;font-variant:normal;font-weight:normal;font-stretch:normal;line-height:0.01%;font-family:Arial;-inkscape-font-specification:Arial;letter-spacing:0px;word-spacing:0px;fill:#000000;fill-opacity:1;stroke:none"
       transform="matrix(0.8,0,0,-0.8,331.90574,-230.38867)"><flowRegion
         id="flowRegion176486-9-51"><rect
           id="rect176488-6-2"
           width="76.296562"
           height="62.101849"
           x="91.378433"
           y="112.53467"
           style="font-style:normal;font-variant:normal;font-weight:normal;font-stretch:normal;font-size:50px;font-family:Arial;-inkscape-font-specification:Arial" /></flowRegion><flowPara
         id="flowPara176490-7-4"
         style="font-size:36px;line-height:1.25">H</flowPara></flowRoot><flowRoot
       xml:space="preserve"
       id="flowRoot176484-9-0"
       style="font-style:normal;font-variant:normal;font-weight:normal;font-stretch:normal;line-height:0.01%;font-family:Arial;-inkscape-font-specification:Arial;letter-spacing:0px;word-spacing:0px;fill:#000000;fill-opacity:1;stroke:none"
       transform="matrix(0.8,0,0,-0.8,665.87262,-230.38867)"><flowRegion
         id="flowRegion176486-9-59"><rect
           id="rect176488-6-18"
           width="76.296562"
           height="62.101849"
           x="91.378433"
           y="112.53467"
           style="font-style:normal;font-variant:normal;font-weight:normal;font-stretch:normal;font-size:50px;font-family:Arial;-inkscape-font-specification:Arial" /></flowRegion><flowPara
         id="flowPara176490-7-30"
         style="font-size:36px;line-height:1.25">I</flowPara></flowRoot><text
       xml:space="preserve"
       style="font-style:normal;font-variant:normal;font-weight:normal;font-stretch:normal;font-size:21.33333397px;line-height:1.25;font-family:sans-serif;-inkscape-font-specification:sans-serif;letter-spacing:0px;word-spacing:0px;fill:#000000;fill-opacity:1;stroke:none;stroke-width:0.80000001"
       x="199.88493"
       y="-316.33508"
       id="text64"
       transform="scale(1,-1)"><tspan
         sodipodi:role="line"
         id="tspan62"
         x="199.88493"
         y="-316.33508"
         style="font-style:normal;font-variant:normal;font-weight:normal;font-stretch:normal;font-size:21.33333397px;font-family:sans-serif;-inkscape-font-specification:sans-serif;stroke-width:0.80000001">confocal image</tspan></text>
<text
       xml:space="preserve"
       style="font-style:normal;font-variant:normal;font-weight:normal;font-stretch:normal;font-size:21.33333397px;line-height:1.25;font-family:sans-serif;-inkscape-font-specification:sans-serif;letter-spacing:0px;word-spacing:0px;fill:#000000;fill-opacity:1;stroke:none;stroke-width:0.80000001"
       x="540.08575"
       y="-316.33508"
       id="text64-8"
       transform="scale(1,-1)"><tspan
         sodipodi:role="line"
         id="tspan62-2"
         x="540.08575"
         y="-316.33508"
         style="font-style:normal;font-variant:normal;font-weight:normal;font-stretch:normal;font-size:21.33333397px;font-family:sans-serif;-inkscape-font-specification:sans-serif;stroke-width:0.80000001">segmentation</tspan></text>
<text
       xml:space="preserve"
       style="font-style:normal;font-variant:normal;font-weight:normal;font-stretch:normal;font-size:21.33333397px;line-height:1.25;font-family:sans-serif;-inkscape-font-specification:sans-serif;letter-spacing:0px;word-spacing:0px;fill:#000000;fill-opacity:1;stroke:none;stroke-width:0.80000001"
       x="938.59515"
       y="-312.25174"
       id="text64-8-8"
       transform="scale(1,-1)"><tspan
         sodipodi:role="line"
         id="tspan62-2-5"
         x="938.59515"
         y="-312.25174"
         style="font-style:normal;font-variant:normal;font-weight:normal;font-stretch:normal;font-size:21.33333397px;font-family:sans-serif;-inkscape-font-specification:sans-serif;stroke-width:0.80000001">area</tspan></text>
<text
       xml:space="preserve"
       style="font-style:normal;font-variant:normal;font-weight:normal;font-stretch:normal;font-size:21.33333397px;line-height:1.25;font-family:sans-serif;-inkscape-font-specification:sans-serif;letter-spacing:0px;word-spacing:0px;fill:#000000;fill-opacity:1;stroke:none;stroke-width:0.80000001"
       x="335.62451"
       y="27.495823"
       id="text64-6"
       transform="scale(1,-1)"><tspan
         sodipodi:role="line"
         id="tspan62-8"
         x="335.62451"
         y="27.495823"
         style="font-style:normal;font-variant:normal;font-weight:normal;font-stretch:normal;font-size:21.33333397px;font-family:sans-serif;-inkscape-font-specification:sans-serif;stroke-width:0.80000001">L2</tspan></text>
<text
       xml:space="preserve"
       style="font-style:normal;font-variant:normal;font-weight:normal;font-stretch:normal;font-size:21.33333397px;line-height:1.25;font-family:sans-serif;-inkscape-font-specification:sans-serif;letter-spacing:0px;word-spacing:0px;fill:#000000;fill-opacity:1;stroke:none;stroke-width:0.80000001"
       x="660.39825"
       y="27.495823"
       id="text64-6-6"
       transform="scale(1,-1)"><tspan
         sodipodi:role="line"
         id="tspan62-8-8"
         x="660.39825"
         y="27.495823"
         style="font-style:normal;font-variant:normal;font-weight:normal;font-stretch:normal;font-size:21.33333397px;font-family:sans-serif;-inkscape-font-specification:sans-serif;stroke-width:0.80000001">L5</tspan></text>
<text
       xml:space="preserve"
       style="font-style:normal;font-variant:normal;font-weight:normal;font-stretch:normal;font-size:21.33333397px;line-height:1.25;font-family:sans-serif;-inkscape-font-specification:sans-serif;letter-spacing:0px;word-spacing:0px;fill:#000000;fill-opacity:1;stroke:none;stroke-width:0.80000001"
       x="960.0639"
       y="27.495823"
       id="text64-6-4"
       transform="scale(1,-1)"><tspan
         sodipodi:role="line"
         id="tspan62-8-6"
         x="960.0639"
         y="27.495823"
         style="font-style:normal;font-variant:normal;font-weight:normal;font-stretch:normal;font-size:21.33333397px;font-family:sans-serif;-inkscape-font-specification:sans-serif;stroke-width:0.80000001">L8</tspan></text>
<text
       xml:space="preserve"
       style="font-style:normal;font-variant:normal;font-weight:normal;font-stretch:normal;font-size:21.33333397px;line-height:1.25;font-family:sans-serif;-inkscape-font-specification:sans-serif;letter-spacing:0px;word-spacing:0px;fill:#000000;fill-opacity:1;stroke:none;stroke-width:0.80000001"
       x="918.08313"
       y="333.99527"
       id="text64-8-8-6"
       transform="scale(1,-1)"><tspan
         sodipodi:role="line"
         id="tspan62-2-5-2"
         x="918.08313"
         y="333.99527"
         style="font-style:normal;font-variant:normal;font-weight:normal;font-stretch:normal;font-size:21.33333397px;font-family:sans-serif;-inkscape-font-specification:sans-serif;stroke-width:0.80000001">entropy</tspan></text>
<text
       xml:space="preserve"
       style="font-style:normal;font-variant:normal;font-weight:normal;font-stretch:normal;font-size:21.33333397px;line-height:1.25;font-family:sans-serif;-inkscape-font-specification:sans-serif;letter-spacing:0px;word-spacing:0px;fill:#000000;fill-opacity:1;stroke:none;stroke-width:0.80000001"
       x="459.69568"
       y="337.96402"
       id="text64-8-8-3"
       transform="scale(1,-1)"><tspan
         sodipodi:role="line"
         id="tspan62-2-5-4"
         x="459.69568"
         y="337.96402"
         style="font-style:normal;font-variant:normal;font-weight:normal;font-stretch:normal;font-size:21.33333397px;font-family:sans-serif;-inkscape-font-specification:sans-serif;stroke-width:0.80000001">cumulative difference</tspan></text>
<text
       xml:space="preserve"
       style="font-style:normal;font-variant:normal;font-weight:normal;font-stretch:normal;font-size:21.33333397px;line-height:1.25;font-family:sans-serif;-inkscape-font-specification:sans-serif;text-align:end;letter-spacing:0px;word-spacing:0px;text-anchor:end;fill:#000000;fill-opacity:1;stroke:none;stroke-width:0.80000001"
       x="363.59955"
       y="322.8782"
       id="text64-8-8-3-0"
       transform="scale(1,-1)"><tspan
         sodipodi:role="line"
         id="tspan62-2-5-4-1"
         x="371.09955"
         y="322.8782"
         style="font-style:normal;font-variant:normal;font-weight:normal;font-stretch:normal;font-size:21.33333397px;font-family:sans-serif;-inkscape-font-specification:sans-serif;text-align:end;text-anchor:end;stroke-width:0.80000001">mode of maximum </tspan><tspan
         sodipodi:role="line"
         x="363.59955"
         y="349.54486"
         style="font-style:normal;font-variant:normal;font-weight:normal;font-stretch:normal;font-size:21.33333397px;font-family:sans-serif;-inkscape-font-specification:sans-serif;text-align:end;text-anchor:end;stroke-width:0.80000001"
         id="tspan216">marginal difference</tspan></text>
<flowRoot
       xml:space="preserve"
       id="flowRoot208"
       style="fill:black;fill-opacity:1;stroke:none;font-family:sans-serif;font-style:normal;font-weight:bold;font-size:13.33333333000000032px;line-height:1.25;letter-spacing:0px;word-spacing:0px;-inkscape-font-specification:'sans-serif Bold';font-stretch:normal;font-variant:normal"><flowRegion
         id="flowRegion210"><rect
           id="rect212"
           width="333.77719"
           height="19.072983"
           x="61.033543"
           y="831.88251" /></flowRegion><flowPara
         id="flowPara214" /></flowRoot><text
       xml:space="preserve"
       style="font-style:normal;font-variant:normal;font-weight:bold;font-stretch:normal;font-size:13.86666679px;line-height:1.25;font-family:sans-serif;-inkscape-font-specification:'sans-serif Bold';letter-spacing:0px;word-spacing:0px;fill:#000000;fill-opacity:1;stroke:none;stroke-width:0.80000001"
       x="195.05109"
       y="537.08191"
       id="text224"
       transform="scale(1,-1)"><tspan
         sodipodi:role="line"
         id="tspan222"
         x="195.05109"
         y="537.08191"
         style="font-size:13.86666679px;fill:#ffffff;fill-opacity:1;stroke-width:0.80000001">2</tspan></text>
<text
       xml:space="preserve"
       style="font-style:normal;font-variant:normal;font-weight:bold;font-stretch:normal;font-size:13.86666679px;line-height:1.25;font-family:sans-serif;-inkscape-font-specification:'sans-serif Bold';letter-spacing:0px;word-spacing:0px;fill:#000000;fill-opacity:1;stroke:none;stroke-width:0.80000001"
       x="129.42081"
       y="444.03827"
       id="text224-3"
       transform="scale(1,-1)"><tspan
         sodipodi:role="line"
         id="tspan222-8"
         x="129.42081"
         y="444.03827"
         style="font-size:13.86666679000000002px;fill:#000000;fill-opacity:1;stroke-width:0.80000001">4</tspan></text>
<text
       xml:space="preserve"
       style="font-style:normal;font-variant:normal;font-weight:bold;font-stretch:normal;font-size:13.86666679px;line-height:1.25;font-family:sans-serif;-inkscape-font-specification:'sans-serif Bold';letter-spacing:0px;word-spacing:0px;fill:#000000;fill-opacity:1;stroke:none;stroke-width:0.80000001"
       x="281.55005"
       y="582.14142"
       id="text224-7"
       transform="scale(1,-1)"><tspan
         sodipodi:role="line"
         id="tspan222-7"
         x="281.55005"
         y="582.14142"
         style="font-size:13.86666679px;fill:#ffffff;fill-opacity:1;stroke-width:0.80000001">3</tspan></text>
<text
       xml:space="preserve"
       style="font-style:normal;font-variant:normal;font-weight:bold;font-stretch:normal;font-size:13.86666679px;line-height:1.25;font-family:sans-serif;-inkscape-font-specification:'sans-serif Bold';letter-spacing:0px;word-spacing:0px;fill:#000000;fill-opacity:1;stroke:none;stroke-width:0.80000001"
       x="149.12593"
       y="395.90927"
       id="text224-7-3"
       transform="scale(1,-1)"><tspan
         sodipodi:role="line"
         id="tspan222-7-6"
         x="149.12593"
         y="395.90927"
         style="font-size:13.86666679px;fill:#ffffff;fill-opacity:1;stroke-width:0.80000001">7</tspan></text>
<text
       xml:space="preserve"
       style="font-style:normal;font-variant:normal;font-weight:bold;font-stretch:normal;font-size:13.86666679px;line-height:1.25;font-family:sans-serif;-inkscape-font-specification:'sans-serif Bold';letter-spacing:0px;word-spacing:0px;fill:#000000;fill-opacity:1;stroke:none;stroke-width:0.80000001"
       x="166.28387"
       y="441.77206"
       id="text224-7-8-5"
       inkscape:transform-center-x="95.755108"
       inkscape:transform-center-y="-35.065251"
       transform="scale(1,-1)"><tspan
         sodipodi:role="line"
         id="tspan222-7-8-3"
         x="166.28387"
         y="441.77206"
         style="font-size:13.86666679px;fill:#000000;fill-opacity:1;stroke-width:0.80000001">6</tspan></text>
<image
       sodipodi:absref="/Users/marees/Papers/LOCO_EFA/output/Images/Final/Fig6/colorbar.png"
       y="-28.856661"
       x="730.31531"
       id="image173"
       xlink:href="../output/Images/Final/Fig6/colorbar.png"
       preserveAspectRatio="none"
       height="24"
       width="280"
       transform="scale(1,-1)" /></g></svg>
